Version 4
SHEET 1 1224 852
WIRE -288 144 -608 144
WIRE 64 144 -288 144
WIRE 128 144 64 144
WIRE 400 144 224 144
WIRE -608 176 -608 144
WIRE 64 176 64 144
WIRE -288 208 -288 144
WIRE -256 208 -288 208
WIRE -144 208 -176 208
WIRE -112 208 -144 208
WIRE 0 208 -32 208
WIRE 400 208 400 144
WIRE 0 240 0 208
WIRE -608 272 -608 256
WIRE 64 272 64 256
WIRE 144 272 144 192
WIRE 144 272 64 272
WIRE 144 320 144 272
WIRE 400 320 400 288
WIRE -144 336 -144 208
WIRE -144 416 -176 416
WIRE 144 464 144 400
WIRE -608 480 -608 464
WIRE -144 480 -144 416
WIRE -112 480 -144 480
WIRE -16 480 -48 480
WIRE -16 544 -16 480
WIRE 64 544 -16 544
WIRE 96 544 64 544
WIRE -608 576 -608 560
WIRE 64 576 64 544
WIRE -112 592 -144 592
WIRE -16 592 -16 544
WIRE -16 592 -48 592
WIRE -144 640 -144 592
WIRE 64 688 64 656
WIRE 144 688 144 560
WIRE 144 688 64 688
WIRE 144 720 144 688
WIRE -144 752 -144 720
FLAG -608 272 0
FLAG -144 752 0
FLAG 400 320 0
FLAG -608 576 0
FLAG -608 464 Vsw
FLAG -176 416 Vsw
FLAG 144 720 0
FLAG 0 240 0
SYMBOL pmos 224 192 M270
SYMATTR InstName M1
SYMATTR Value Si7409DN
SYMBOL nmos 96 464 R0
SYMATTR InstName M2
SYMATTR Value IRF7401
SYMBOL res 128 304 R0
SYMATTR InstName R1
SYMATTR Value 10k
SYMBOL res 48 160 R0
SYMATTR InstName R2
SYMATTR Value 20k
SYMBOL voltage -608 160 R0
WINDOW 123 0 0 Left 0
WINDOW 39 0 0 Left 0
SYMATTR InstName V1
SYMATTR Value 5V
SYMBOL voltage -144 624 R0
WINDOW 0 -142 -4 Left 2
WINDOW 3 -416 58 Left 2
WINDOW 123 0 0 Left 0
WINDOW 39 0 0 Left 0
SYMATTR InstName GPIO_PWR
SYMATTR Value PULSE(0 3.3 1.5ms 10n 10n 5ms 0 1)
SYMBOL res 384 192 R0
SYMATTR InstName R3
SYMATTR Value 10
SYMBOL diode -112 576 M90
WINDOW 0 0 32 VBottom 2
WINDOW 3 37 48 VTop 2
SYMATTR InstName D2
SYMATTR Value 1N914
SYMBOL voltage -608 464 R0
WINDOW 3 -407 91 Left 2
WINDOW 123 0 0 Left 0
WINDOW 39 0 0 Left 0
SYMATTR Value PULSE(0 3.3 1ms 10n 10n 2ms 0 1)
SYMATTR InstName SWITCH
SYMBOL diode -112 496 R270
WINDOW 0 32 32 VTop 2
WINDOW 3 0 32 VBottom 2
SYMATTR InstName D1
SYMATTR Value 1N914
SYMBOL res 48 560 R0
SYMATTR InstName R4
SYMATTR Value 100k
SYMBOL res -160 192 R90
WINDOW 0 0 56 VBottom 2
WINDOW 3 32 56 VTop 2
SYMATTR InstName R5
SYMATTR Value 10k
SYMBOL res -16 192 R90
WINDOW 0 0 56 VBottom 2
WINDOW 3 32 56 VTop 2
SYMATTR InstName R6
SYMATTR Value 20k
TEXT 648 424 Left 2 !.tran 10ms
TEXT 648 448 Left 2 !.model S1 SW(Roff=1G Ron=1mu Vt=0.11 Vh=0)
